[gd_scene load_steps=5 format=2]

[ext_resource path="res://Weapons/Weapon.tscn" type="PackedScene" id=1]

[sub_resource type="Gradient" id=1]
colors = PoolColorArray( 0.854902, 0.854902, 0.854902, 1, 0.854902, 0.854902, 0.854902, 1 )

[sub_resource type="GradientTexture" id=2]
gradient = SubResource( 1 )
width = 10

[sub_resource type="RectangleShape2D" id=3]
extents = Vector2( 5, 35 )

[node name="Weapon" instance=ExtResource( 1 )]

[node name="Sprite" parent="." index="0"]
position = Vector2( 0, -35 )
scale = Vector2( 1, 70 )
texture = SubResource( 2 )

[node name="CollisionShape2D" parent="." index="1"]
position = Vector2( 0, -35 )
shape = SubResource( 3 )
