[gd_scene load_steps=2 format=2]

[ext_resource path="res://Weapons/Weapon.gd" type="Script" id=1]

[node name="Weapon" type="Area2D"]
collision_layer = 5
collision_mask = 5
script = ExtResource( 1 )

[node name="Sprite" type="Sprite" parent="."]

[node name="CollisionShape2D" type="CollisionShape2D" parent="."]
disabled = true
[connection signal="body_entered" from="." to="." method="_on_Weapon_body_entered"]
